{
  "sections": {
    "main": {
      "type": "page",
      "disabled": true,
      "settings": {}
    },
    "164143307699e59c06": {
      "type": "custom-content",
      "blocks": {
        "1641433075b68bdecd-0": {
          "type": "text",
          "settings": {
            "title": "<h2>Application Received<\/h2>",
            "subheading": "",
            "text": "<p>Your application is being reviewed. We will get it processed as soon as possible.<\/p><p>If you have any questions, reply to this email or contact us at <a href=\"mailto:contact@KrafHeinzEquipment.ca\">contact@KrafHeinzEquipment.ca<\/a><\/p>",
            "width": "100%",
            "alignment": "center",
            "align_text": "center",
            "text_size": "medium",
            "text_color": "black",
            "button_label": "",
            "button_link": "",
            "button_style": "sf__btn-primary",
            "button_size": "",
            "block_custom_class": ""
          }
        },
        "1641433075b68bdecd-1": {
          "type": "image",
          "disabled": true,
          "settings": {
            "link": "",
            "width": "50%",
            "alignment": "center",
            "block_custom_class": ""
          }
        }
      },
      "block_order": [
        "1641433075b68bdecd-0",
        "1641433075b68bdecd-1"
      ],
      "settings": {
        "heading": "",
        "subheading": "",
        "description": "",
        "header_alignment": "center",
        "container": "container-fluid",
        "background_color": "",
        "gap": 30,
        "use_scroll_mobile": false,
        "gap_mobile": 16,
        "custom_class": ""
      }
    }
  },
  "order": [
    "main",
    "164143307699e59c06"
  ]
}